<?xml version="1.0" encoding="iso-8859-1"?>
<!-- Generator: Adobe Illustrator 18.1.1, SVG Export Plug-In . SVG Version: 6.00 Build 0)  -->
<svg version="1.1" width="46px" height="40px" id="Capa_1" xmlns="http://www.w3.org/2000/svg" xmlns:xlink="http://www.w3.org/1999/xlink" x="0px" y="0px"
	 viewBox="0 0 75.999 75.999" style="enable-background:new 0 0 75.999 75.999;" xml:space="preserve">
<g>
	<g>
		<path style="fill:#ff1f1f" d="M14.579,5C6.527,5,0,11.716,0,20c0,8.285,6.527,15,14.579,15C29.157,35,19.438,64,0,64v7
			C34.69,71,48.286,5,14.579,5z M56.579,5C48.527,5,42,11.716,42,20c0,8.285,6.527,15,14.579,15C71.157,35,61.438,64,42,64v7
			C76.69,71,90.286,5,56.579,5z"/>
	</g>
</g>
<g>
</g>
<g>
</g>
<g>
</g>
<g>
</g>
<g>
</g>
<g>
</g>
<g>
</g>
<g>
</g>
<g>
</g>
<g>
</g>
<g>
</g>
<g>
</g>
<g>
</g>
<g>
</g>
<g>
</g>
</svg>
